{
  "TODO": {
    "TOGGLE_DRAGGABLE_DIV": "TOGGLE_DRAGGABLE_DIV"
  },
  "WIDTH_OF_DRAGGBALE_DIV": 356,
  "EXPIRES_IN": 7200,
  "EXPIRATION_DATE": "EXPIRATION_DATE",
  "BTN_STATUS": {
    "NOT_SELECT": "NOT_SELECT",
    "CURRENT_SELECT": "CURRENT_SELECT",
    "SELECTED": "SELECTED"
  },
  "AUTH_TOKEN": "AUTH_TOKEN",
  "USER": "USER",
  "DOC_TYPES": "DOC_TYPES",
  "ENDPOINT": {
    "AUTH_LOGIN_USER": "api/login",
    "AUTH_EXTRACT_FILE": "auth/login",
    "UPLOADING": "media/upload",
    "PRE_PROCESS": "pre-process/pdf",
    "MATCHING": "matching/",
    "EXTRACTION": "extraction/",
    "BIZ": "biz/"
  },
  "ICON_TYPES": {
    "FORWARD": "FORWARD",
    "CLEAR": "CLEAR"
  },
  "DOCTYPE": ["SI"],
  "DOCTYPE_OPTIONS": [
    {
      "value": "SI",
      "label": "Shipping Instruction (SI)"
    },
    {
      "value": "ABC",
      "label": "ABC"
    }
  ]
}
